{
    "variable": [
        {
            "id": "baseUrl",
            "key": "baseUrl",
            "type": "string",
            "name": "string",
            "value": "http:\/\/127.0.0.1:8000"
        }
    ],
    "info": {
        "name": "TechTest",
        "_postman_id": "fbc92760-f4c3-4b90-a939-8a448e9841a0",
        "description": "",
        "schema": "https:\/\/schema.getpostman.com\/json\/collection\/v2.1.0\/collection.json"
    },
    "item": [
        {
            "name": "Articles",
            "description": "",
            "item": [
                {
                    "name": "List all articles with pagination.",
                    "request": {
                        "url": {
                            "host": "{{baseUrl}}",
                            "path": "api\/articles",
                            "query": [
                                {
                                    "key": "page",
                                    "value": "1",
                                    "description": "The page number.",
                                    "disabled": false
                                },
                                {
                                    "key": "per_page",
                                    "value": "5",
                                    "description": "The number of items per page. Defaults to 10.",
                                    "disabled": false
                                }
                            ],
                            "raw": "{{baseUrl}}\/api\/articles?page=1&per_page=5"
                        },
                        "method": "GET",
                        "header": [
                            {
                                "key": "Content-Type",
                                "value": "application\/json"
                            },
                            {
                                "key": "Accept",
                                "value": "application\/json"
                            }
                        ],
                        "body": null,
                        "description": "",
                        "auth": {
                            "type": "noauth"
                        }
                    },
                    "response": [
                        {
                            "header": [],
                            "code": 200,
                            "body": "{\n  \"data\": [\n    {\n      \"id\": 1,\n      \"title\": \"Sample Article\",\n      \"content\": \"This is a sample article.\",\n      \"created_at\": \"2023-01-01T00:00:00.000000Z\",\n      \"updated_at\": \"2023-01-01T00:00:00.000000Z\"\n    }\n  ],\n  \"links\": {\n    \"first\": \"http:\/\/your-app-url\/api\/articles?page=1\",\n    \"last\": \"http:\/\/your-app-url\/api\/articles?page=2\",\n    \"prev\": null,\n    \"next\": \"http:\/\/your-app-url\/api\/articles?page=2\"\n  },\n  \"meta\": {\n    \"current_page\": 1,\n    \"from\": 1,\n    \"last_page\": 2,\n    \"path\": \"http:\/\/your-app-url\/api\/articles\",\n    \"per_page\": 5,\n    \"to\": 5,\n    \"total\": 10\n  }\n}",
                            "name": ""
                        }
                    ]
                },
                {
                    "name": "Store a new article.",
                    "request": {
                        "url": {
                            "host": "{{baseUrl}}",
                            "path": "api\/articles",
                            "query": [],
                            "raw": "{{baseUrl}}\/api\/articles"
                        },
                        "method": "POST",
                        "header": [
                            {
                                "key": "Content-Type",
                                "value": "multipart\/form-data"
                            },
                            {
                                "key": "Accept",
                                "value": "application\/json"
                            }
                        ],
                        "body": {
                            "mode": "formdata",
                            "formdata": [
                                {
                                    "key": "title",
                                    "value": "\"New Article\"",
                                    "type": "text",
                                    "description": "The title of the article."
                                },
                                {
                                    "key": "content",
                                    "value": "\"This is the content of the new article.\"",
                                    "type": "text",
                                    "description": "The content of the article."
                                },
                                {
                                    "key": "image",
                                    "src": [],
                                    "type": "file"
                                }
                            ]
                        },
                        "description": "Create a new article with the provided title and content.",
                        "auth": {
                            "type": "noauth"
                        }
                    },
                    "response": [
                        {
                            "header": [],
                            "code": 201,
                            "body": "{\n  \"id\": 2,\n  \"title\": \"New Article\",\n  \"content\": \"This is the content of the new article.\",\n  \"created_at\": \"2023-01-01T00:00:00.000000Z\",\n  \"updated_at\": \"2023-01-01T00:00:00.000000Z\"\n}",
                            "name": ""
                        }
                    ]
                },
                {
                    "name": "Show a specific article.",
                    "request": {
                        "url": {
                            "host": "{{baseUrl}}",
                            "path": "api\/articles\/:id",
                            "query": [],
                            "raw": "{{baseUrl}}\/api\/articles\/:id",
                            "variable": [
                                {
                                    "id": "id",
                                    "key": "id",
                                    "value": "1",
                                    "description": "The ID of the article."
                                }
                            ]
                        },
                        "method": "GET",
                        "header": [
                            {
                                "key": "Content-Type",
                                "value": "application\/json"
                            },
                            {
                                "key": "Accept",
                                "value": "application\/json"
                            }
                        ],
                        "body": null,
                        "description": "Retrieve a specific article by its ID.",
                        "auth": {
                            "type": "noauth"
                        }
                    },
                    "response": [
                        {
                            "header": [],
                            "code": 200,
                            "body": "{\n  \"id\": 1,\n  \"title\": \"Sample Article\",\n  \"content\": \"This is a sample article.\",\n  \"created_at\": \"2023-01-01T00:00:00.000000Z\",\n  \"updated_at\": \"2023-01-01T00:00:00.000000Z\"\n}",
                            "name": ""
                        },
                        {
                            "header": [],
                            "code": 404,
                            "body": "{\n  \"message\": \"Record not found.\"\n}",
                            "name": ""
                        }
                    ]
                },
                {
                    "name": "Update an article.",
                    "request": {
                        "url": {
                            "host": "{{baseUrl}}",
                            "path": "api\/articles\/:id",
                            "query": [],
                            "raw": "{{baseUrl}}\/api\/articles\/:id",
                            "variable": [
                                {
                                    "id": "id",
                                    "key": "id",
                                    "value": "1",
                                    "description": "The ID of the article."
                                }
                            ]
                        },
                        "method": "POST",
                        "header": [
                            {
                                "key": "Content-Type",
                                "value": "multipart\/form-data"
                            },
                            {
                                "key": "Accept",
                                "value": "application\/json"
                            }
                        ],
                        "body": {
                            "mode": "formdata",
                            "formdata": [
                                {
                                    "key": "title",
                                    "value": "\"Updated Article\"",
                                    "type": "text",
                                    "description": "The new title of the article."
                                },
                                {
                                    "key": "content",
                                    "value": "\"This is the updated content.\"",
                                    "type": "text",
                                    "description": "The new content of the article."
                                },
                                {
                                    "key": "image",
                                    "src": [],
                                    "type": "file"
                                },
                                {
                                    "key": "_method",
                                    "value": "PUT",
                                    "type": "text"
                                }
                            ]
                        },
                        "description": "Update the specified article with new data.",
                        "auth": {
                            "type": "noauth"
                        }
                    },
                    "response": [
                        {
                            "header": [],
                            "code": 200,
                            "body": "{\n  \"id\": 1,\n  \"title\": \"Updated Article\",\n  \"content\": \"This is the updated content.\",\n  \"created_at\": \"2023-01-01T00:00:00.000000Z\",\n  \"updated_at\": \"2023-01-01T00:00:00.000000Z\"\n}",
                            "name": ""
                        },
                        {
                            "header": [],
                            "code": 404,
                            "body": "{\n  \"message\": \"Record not found.\"\n}",
                            "name": ""
                        }
                    ]
                },
                {
                    "name": "Delete an article.",
                    "request": {
                        "url": {
                            "host": "{{baseUrl}}",
                            "path": "api\/articles\/:id",
                            "query": [],
                            "raw": "{{baseUrl}}\/api\/articles\/:id",
                            "variable": [
                                {
                                    "id": "id",
                                    "key": "id",
                                    "value": "1",
                                    "description": "The ID of the article."
                                }
                            ]
                        },
                        "method": "DELETE",
                        "header": [
                            {
                                "key": "Content-Type",
                                "value": "application\/json"
                            },
                            {
                                "key": "Accept",
                                "value": "application\/json"
                            }
                        ],
                        "body": null,
                        "description": "Remove the specified article from the database.",
                        "auth": {
                            "type": "noauth"
                        }
                    },
                    "response": [
                        {
                            "header": [],
                            "code": 204,
                            "body": "{\n  \"message\": \"The article was successfully deleted.\"\n}",
                            "name": ""
                        },
                        {
                            "header": [],
                            "code": 404,
                            "body": "{\n  \"message\": \"Record not found.\"\n}",
                            "name": ""
                        }
                    ]
                }
            ]
        }
    ],
    "auth": {
        "type": "noauth"
    }
}